[
    {
        "description":"Nature in blue",
        "external_url":"https://kba.ai/",
        "image":"https://amaranth-bold-basilisk-287.mypinata.cloud/ipfs/QmeBJWQuYfFbTrX6q9HV68ncP24F7AFVqLfBXUBVh24TMd",
        "name":"NatureBlue",
        "attributes":[
            {
                "trait-type":"color",
                "value":"blue"
            },
            {
                "trait-type":"scenary",
                "value":"mountain"
            }
        ]
    },
    {
        "description":"Nature in b&W",
        "external_url":"https://kba.ai/",
        "image":"https://amaranth-bold-basilisk-287.mypinata.cloud/ipfs/QmXyJb6oMabjzVw4Vot5DdHTXcchmVrewme5GokPcUVyXQ",
        "name":"NatureBlack&White",
        "attributes":[
            {
                "trait-type":"color",
                "value":"black&white"
            },
            {
                "trait-type":"scenary",
                "value":"mountain"
            }  
        ]
    }
]